{
  "buttonText": false,
  "component": "packs-components/Markdown",
  "skip": {
    "!==": [
      "$assignmentId",
      "ASSIGNMENT_ID_NOT_AVAILABLE"
    ]
  },
  "source": "### Instructions:\n\nThank you for your interest in our follow-up study. We are conducting an academic study about what things are most important in people's lives, and we would like to ask you more questions like the ones in the first survey.  \n\nAs before, this survey is not being conducted for commercial purposes and your responses will not be sold. And this is a survey about your opinions so there are no right or wrong answers. But it is important to us that you think carefully about your opinions and answer as honestly as you can.\n\nHere are the steps to participate:\n\n1. Accept this HIT.\n2. Complete as many HITs as you like. The first 13 HITs are the as the first survey you did in the HIT “Academic survey about what is important in life,” but you will not need to answer the demographic questions again. **All remaining HITs are shorter – they do not contain questions about rating things other than aspects of your life** *Tip*: You can automatically keep accepting HITs by clicking the “Automatically accept the next HIT.”\n3. At the end of each set of survey questions, you simply need to click “Submit.” You will then be sent to the preview screen and can accept the HIT again to complete another HIT.\n4. When you would like to finish, you may click submit and exit the survey.\n5. If you complete all of the available HITs (approximately 140), you will receive a bonus payment $15.00.\n\n For cost reasons, we have limited the number of assignments on later HITs. If you run out of HITs before reaching the 138 HIT limit, but would like to do more HITs, please email [welllabssurvey@gmail.com](mailto:welllabssurvey@gmail.com), and we will open the survey so you may complete as many HITs as you would like. \n\nIf you would like to stop receiving survey invitations from us, please contact Tushar Kundu at welllabssurvey@gmail.com."
}