{
  "component": "wiagl-components/Consent",
  "consent_start": "#### Please Note: The consent form below contains the same information that you were given in the consent form in the previous survey. We have provided the consent form for your information but also want to inform you that the only difference unique to this HIT group is the payment amount listed, so you are not reading through it wondering what is different.\n\n ## Consent Form\n\nYou are invited to participate in a research study conducted by Professors Daniel Benjamin (University of Southern California), Kristen Cooper (Gordon College), Ori Heffetz (Hebrew University of Jerusalem), and Miles Kimball (University of Southern California), because you are a participant on Amazon’s Mechanical Turk. This study is funded by the National Institutes of Health. Your participation is voluntary. You should read the information below, and ask questions about anything you do not understand, before deciding whether or not to participate. Please take as much time as you need to read the consent form. If you decide to participate, you will be asked to check a box to give your consent to participate. You can print this screen for your records or request a pdf copy of this consent form from the researchers.\n\n \n\n#### Purpose of the Study:\n\nWe are a group of scientists gathering data to develop an index of subjective well-being.",
  "module_name":"initial",
  "procedure": "#### Procedures:\n\nIf you volunteer to participate in this study, you will be asked to answer a series of questions, first about the level of various aspects of well-being and then about the relative importance of each of these aspects in life. You will also be asked some questions to help us learn more about you, and how you are thinking about these questions.\n\n We also may send you additional surveys in the future, which you will have the option of completing for additional payment.\n\n",
  "potential": "#### Potential Risks and Discomforts:\n\nBecause we will ask you questions that may cause you to think deeply about your life, we are required to provide you with the following hotline contact information. If you have suicidal thoughts, please contact The National Suicide Prevention Lifeline at 1-800-273-8255 or online at [www.suicidepreventionlifeline.org](www.suicidepreventionlifeline.org). No other risks are anticipated. However, if you feel discomfort answering any question, you do not have to answer it. You may end your participation at any time.\n\n #### Potential Benefits to Participants and/or to Society:\n\nThere are no anticipated benefits to you as a result of your participation in this study. We hope that this study will help researchers learn more about how to measure people’s well-being. We also hope that after further developing this survey, we will be able to measure the well-being of larger populations, even entire countries.\n\n",
  "payment": "#### Payment/Compensation for Participation:\n\nYou will receive $1.00 for each HIT you complete, along with a bonus of $10.00 if you complete all 138 HITs available to you, and will receive additional payment for later surveys if you agree to continue participating. Please note that participating in future surveys is completely optional, and that you will still be paid for participation in this survey regardless of whether you choose to receive invitations to later surveys.\n\n",
  "consent_end": "\n\n#### Confidentiality:\n\nWe will keep your records for this study confidential as far as permitted by law. However, if we are required to do so by law, we will disclose confidential information about you. The members of the research team, the National Institutes of Health and the University of Southern California’s Human Subjects Protection Program (HSPP) may access the data. The HSPP reviews and monitors research studies to protect the rights and welfare of research subjects.\n\nAll research data will be coded, and we will not store any personally-identifiable information without your explicit permission. Your responses will be collected over an encrypted TSL connection, the same level of security that protects your username and password when you sign on to Gmail or Amazon.com.\n\nSince this study is conducted on Amazon Mechanical Turk, it adheres to Amazon’s MTurk Privacy Policy. To understand the privacy and confidentiality limitations associated with using MTurk, we strongly advise you to familiarize yourself with Amazon’s privacy code [(https://www.mturk.com/mturk/privacynotice)](https://www.mturk.com/mturk/privacynotice). In light of privacy concerns, we tried to create a study design that reduces any potential privacy risks to participants. With that in mind, you should know that any work performed on MTurk can be linked to the user’s public profile page. Thus, workers may want to restrict what information they choose to share in their public profile.\n\nDuring the study, we will use your device’s IP address to identify your approximate location, using a website such as db-ip.com [(https://db-ip.com/)](https://db-ip.com/). We will keep the city, state, country, and corresponding geo-coordinates of your current IP address. We also use IP addresses to detect potentially fraudulent survey respondents. At the completion of the study, direct identifiers (your MTurk ID) will be destroyed unless explicit permission is given by you to keep your identifier so that we may send you future studies to see if you are interested in completing them. The identifiers will be stored separately from the rest of the data, which will be de-identified before analysis is conducted. The de-identified data will be stored and made available for future research use by a digital repository, such as the Interuniversity Consortium for Political and Social Research (ICPSR).\n\n#### Participation and Withdrawal:\n\nYour participation is voluntary. Your decision not to participate will not involve any penalty or loss of benefits to which you are otherwise entitled. You may withdraw your consent at any time and discontinue participation without penalty. You are not waiving any legal claims, rights or remedies because of your participation in this research study.\n\n#### Investigator’s Contact Information:\n\nIf you have any questions or concerns about the research, please feel free to contact Professor Daniel Benjamin at [djbenjam@usc.edu](mailto:djbenjam@usc.edu).\n\n#### Rights of the Research Participant—IRB Contact Information:\n\nIf you have questions, concerns, or complaints about your rights as a research participant or the research in general and are unable to contact the research team, or if you want to talk to someone independent of the research team, please contact the University of Southern California Institutional Review Board, 1640 Marengo Street, Suite 700, Los Angeles, CA 90033-9269, Phone (323) 442-0114 or email [irb@usc.edu](mailto:irb@usc.edu)."
  }
