{
  "component": "packs-components/Randomize",
  "seed": "${workerId}reminder",
  "states": [
    {
      "alwaysShowReminder": "$reminder_text",
      "notNeverShowReminder": "$reminder_text"
    },
    {
      "alwaysShowReminder": false,
      "notNeverShowReminder": "$reminder_text"
    },
    {
      "alwaysShowReminder": false,
      "notNeverShowReminder": false
    }
  ]
}