{
  "aspect": {
    "code": 8,
    "color": "$color_8",
    "rating": "$rating_8",
    "text": "$text_8"
  },
  "bucket": "$bucket_6",
  "component": "wiagl-components/Rating",
  "skip": {
    "===": [
      "$short",
      "true"
    ]
  }
}