{
  "aspects": [
    {
      "code": 7,
      "color": "$color_7",
      "rating": "$rating_7",
      "text": "$text_7"
    },
    {
      "code": 8,
      "color": "$color_8",
      "rating": "$rating_8",
      "text": "$text_8"
    },
    {
      "code": 6,
      "color": "$color_6",
      "rating": "$rating_6",
      "text": "$text_6"
    }
  ],
  "bucket": "$bucket_6",
  "component": "wiagl-components/Tradeoff",
  "should_decrease": "$should_decrease",
  "triple_code": 2,
  "skip": {
    "or": [
      {
        "===" : ["$rating_6_skip", "$skipRatingText"] 
      },{
        "===" : ["$rating_7_skip", "$skipRatingText"] 
      },{
        "===" : ["$rating_8_skip", "$skipRatingText"] 
      }, {
        "===": ["$short", "true"]
      }
    ] 
  }
}