{
  "aspects": [
    {
      "code": 23,
      "color": "$color_23",
      "rating": "$rating_23",
      "text": "$text_23"
    },
    {
      "code": 21,
      "color": "$color_21",
      "rating": "$rating_21",
      "text": "$text_21"
    },
    {
      "code": 22,
      "color": "$color_22",
      "rating": "$rating_22",
      "text": "$text_22"
    }
  ],
  "bucket": "$bucket_21",
  "component": "wiagl-components/Tradeoff",
  "should_decrease": "$should_decrease",
  "triple_code": 7,
  "skip": {
    "or": [
      {
        "===" : ["$rating_21_skip", "$skipRatingText"] 
      },{
        "===" : ["$rating_22_skip", "$skipRatingText"] 
      },{
        "===" : ["$rating_23_skip", "$skipRatingText"] 
      }, {
        "===": ["$short", "true"]
      }
    ] 
  }
}