{
    "aspect": {
      "code": 29,
      "color": "$color_29",
      "rating": "$rating_29",
      "text": "$text_29"
    },
    "bucket": "$bucket_29",
    "component": "wiagl-components/Rating",
    "skip": {
      "===": [
        "$short",
        "true"
      ]
    }
  }