{
  "aspects": [
    {
      "code": "$pv_1_a_0_code",
      "md": "$pv_1_a_0_text",
      "mde": "$pv_1_a_0_expression"
    },
    {
      "code": "$pv_1_a_1_code",
      "md": "$pv_1_a_1_text",
      "mde": "$pv_1_a_1_expression"
    },
    {
      "code": "$pv_1_a_2_code",
      "md": "$pv_1_a_2_text",
      "mde": "$pv_1_a_2_expression"
    }
  ],
  "defaults": {
    "color": "$pv_1_color"
  },
  "id": "$pv_1_id",
  "bucket": "$pv_1_bucket",
  "component": "wiagl-components/Vignette",
  "instructions": "$pv_1_preamble_instructions",
  "reminder": "$reminder_text",
  "order":2,
  "skip": {
    "or": [
    {
      "!==" : ["$backend_pv_1_seen", true] 
    },
    {
      "==" : ["$backend_skipVignette", true] 
    }
  ] 
  },

  "workerId": "$workerId",
  "name": "bottomless"
}