{
    "aspects": [
      {
        "code": "$pv_4_a_0_code",
        "md": "$pv_4_a_0_text",
        "mde": "$pv_4_a_0_expression"
      },
      {
        "code": "$pv_4_a_1_code",
        "md": "$pv_4_a_1_text",
        "mde": "$pv_4_a_1_expression"
      },
      {
        "code": "$pv_4_a_2_code",
        "md": "$pv_4_a_2_text",
        "mde": "$pv_4_a_2_expression"
      }
    ],
   "defaults": {
      "color": "$pv_4_color"
      },
    "id":"$pv_4_id",
    "bucket": "$pv_4_bucket",
    "component": "wiagl-components/Vignette",
    "instructions": "$pv_4_preamble_instructions",
    "reminder": "$reminder_text",
    "order":5,
    "skip": {
      "or": [
      {
        "!==" : ["$backend_pv_4_seen", true] 
      },
      {
        "==" : ["$backend_skipVignette", true] 
      }
    ] 
    },
    "workerId": "$workerId",
    "name": "bottomless"
  }