{
    "aspects": [
      {
        "code": "$iv_4_a_0_code",
        "image": "$iv_4_a_0_image"
      },
      {
        "code": "$iv_4_a_1_code",
        "image": "$iv_4_a_1_image"
      },
      {
        "code": "$iv_4_a_2_code",
        "image": "$iv_4_a_2_image"
      }
    ],
    "defaults": {
      "color": "$iv_4_color",
      "md": "$iv_4_text"
    },
    "code": "$iv_4_a_0_code",
    "bucket": "$iv_4_bucket",
    "adjective":"$iv_4_adjective",
    "text": "$iv_4_text",
    "instructions": "$iv_4_preamble_instructions",
    "type":"$scaleFrame",
    "id":"$iv_4_id",
    "component": "wiagl-components/ManageAltComponents",
    "override_scale": {"max_point": "Highest level possible", "min_point": "Lowest level possible"},
    "order":5,
    "skip": {
      "or": [
      {
        "!==" : ["$backend_iv_4_seen", true] 
      },
      {
        "==" : ["$backend_skipManage", true] 
      }
    ] 
    },
      "skip2": {
        "===": [
          "$vig_after_walk",
          true
        ]
      },
      "workerId": "$workerId",
      "name": "bottomless"
  }