{
  "component": "packs-components/Form",
  "condition": {
    "focus": {
      "===": [
        "$extra_question",
        "focus"
      ]
    },
    "whichAspect": {
      "===": [
        "$extra_question",
        "whichAspect"
      ]
    }
  },
  "n_unanswered_message": "$unanswered_message",
  "schema": {
    "md": "## Question about the survey",
    "properties": {
      "focus": {
        "enum": [
          "$focus_0",
          "$focus_1",
          "Both about equally"
        ],
        "md": "*When you were making the personal and policy decisions, were you focusing most on the ***words*** saying which aspects of life were changing or on the ***numbers*** saying how much each aspect was changing?*",
        "seed": "focus${workerId}",
        "type": "string"
      },
      "whichAspect": {
        "enum": [
          "$whichAspect_option1",
          "$whichAspect_option2",
          "$whichAspect_option3",
          "$whichAspect_option4",
          "$aspect_end"
        ],
        "md": "*Which aspect of life did you **not** answer questions about in this set of questions?*",
        "randomize": true,
        "seed": "$start",
        "type": "string"
      }
    },
    "type": "object"
  },
  "skip": {
    "===": [
      "$extra_question",
      false
    ]
  }
}